…
``` r
driver <- read.csv("drivers-forest-loss-brazil-amazon.csv")
driver <- driver %>% select(-Entity)
driver <- driver %>% select(-Code)
driver_year <- driver |> pivot_longer(-Year)
driver_year
```

    ## # A tibble: 143 × 3
    ##     Year name                              value
    ##    <int> <chr>                             <int>
    ##  1  2001 flooding_due_to_dams                  0
    ##  2  2001 natural_disturbances                  0
    ##  3  2001 fire                              26000
    ##  4  2001 selective_logging                 96000
    ##  5  2001 other_infrastructure               9000
    ##  6  2001 roads                             13000
    ##  7  2001 mining                             9000
    ##  8  2001 small.scale_clearing             249000
    ##  9  2001 tree_plantations_including_palm   44000
    ## 10  2001 pasture                         1520000
    ## # ℹ 133 more rows
…
