…
``` r
grouped_data2 <- firedata %>%
  group_by(state) %>%
  summarize(mean_value = mean(number))
grouped_data2
```

    ## # A tibble: 23 × 2
    ##    state            mean_value
    ##    <chr>                 <dbl>
    ##  1 Acre                   77.3
    ##  2 Alagoas                19.4
    ##  3 Amapa                  91.3
    ##  4 Amazonas              128. 
    ##  5 Bahia                 187. 
    ##  6 Ceara                 127. 
    ##  7 Distrito Federal       14.9
    ##  8 Espirito Santo         27.4
    ##  9 Goias                 158. 
    ## 10 Maranhao              105. 
    ## # ℹ 13 more rows
…
